Lab6/simulation/qsim/Lab6.msim.vcd
$comment
	File created using the following command:
		vcd file Lab6.msim.vcd -direction
$end
$date
	Tue Nov 28 19:18:20 2023
$end
$version
	ModelSim Version 10.1d
$end
$timescale
	1ps
$end
$scope module Lab6_problem1_vlg_vec_tst $end
$var reg 8 ! A [7:0] $end
$var reg 8 " B [7:0] $end
$var reg 1 # Clock $end
$var reg 1 $ data_in $end
$var reg 1 % decoder_enabler $end
$var reg 1 & Reset $end
$var wire 1 ' Neg $end
$var wire 1 ( R1 [3] $end
$var wire 1 ) R1 [2] $end
$var wire 1 * R1 [1] $end
$var wire 1 + R1 [0] $end
$var wire 1 , R2 [3] $end
$var wire 1 - R2 [2] $end
$var wire 1 . R2 [1] $end
$var wire 1 / R2 [0] $end
$var wire 1 0 R_first_four [0] $end
$var wire 1 1 R_first_four [1] $end
$var wire 1 2 R_first_four [2] $end
$var wire 1 3 R_first_four [3] $end
$var wire 1 4 R_first_four [4] $end
$var wire 1 5 R_first_four [5] $end
$var wire 1 6 R_first_four [6] $end
$var wire 1 7 R_first_sign [0] $end
$var wire 1 8 R_first_sign [1] $end
$var wire 1 9 R_first_sign [2] $end
$var wire 1 : R_first_sign [3] $end
$var wire 1 ; R_first_sign [4] $end
$var wire 1 < R_first_sign [5] $end
$var wire 1 = R_first_sign [6] $end
$var wire 1 > R_last_four [0] $end
$var wire 1 ? R_last_four [1] $end
$var wire 1 @ R_last_four [2] $end
$var wire 1 A R_last_four [3] $end
$var wire 1 B R_last_four [4] $end
$var wire 1 C R_last_four [5] $end
$var wire 1 D R_last_four [6] $end
$var wire 1 E student_id_leds [0] $end
$var wire 1 F student_id_leds [1] $end
$var wire 1 G student_id_leds [2] $end
$var wire 1 H student_id_leds [3] $end
$var wire 1 I student_id_leds [4] $end
$var wire 1 J student_id_leds [5] $end
$var wire 1 K student_id_leds [6] $end
$var wire 1 L Student_Num [3] $end
$var wire 1 M Student_Num [2] $end
$var wire 1 N Student_Num [1] $end
$var wire 1 O Student_Num [0] $end
$var wire 1 P sampler $end
$scope module i1 $end
$var wire 1 Q gnd $end
$var wire 1 R vcc $end
$var wire 1 S unknown $end
$var tri1 1 T devclrn $end
$var tri1 1 U devpor $end
$var tri1 1 V devoe $end
$var wire 1 W inst3|Add2~2_combout $end
$var wire 1 X inst3|Add2~4_combout $end
$var wire 1 Y inst3|Add2~6_combout $end
$var wire 1 Z inst3|Add0~2_combout $end
$var wire 1 [ inst3|Add0~4_combout $end
$var wire 1 \ inst3|Add0~6_combout $end
$var wire 1 ] inst3|Add1~0_combout $end
$var wire 1 ^ inst3|Add1~2_combout $end
$var wire 1 _ inst3|Add1~4_combout $end
$var wire 1 ` inst3|Add1~6_combout $end
$var wire 1 a inst3|Add2~9 $end
$var wire 1 b inst3|Add2~10_combout $end
$var wire 1 c inst3|Add2~11 $end
$var wire 1 d inst3|Add2~12_combout $end
$var wire 1 e inst3|Add2~13 $end
$var wire 1 f inst3|Add2~14_combout $end
$var wire 1 g inst3|Add0~9 $end
$var wire 1 h inst3|Add0~10_combout $end
$var wire 1 i inst3|Add0~11 $end
$var wire 1 j inst3|Add0~12_combout $end
$var wire 1 k inst3|Add0~13 $end
$var wire 1 l inst3|Add0~14_combout $end
$var wire 1 m inst3|Add1~9 $end
$var wire 1 n inst3|Add1~10_combout $end
$var wire 1 o inst3|Add1~11 $end
$var wire 1 p inst3|Add1~12_combout $end
$var wire 1 q inst3|Add1~13 $end
$var wire 1 r inst3|Add1~14_combout $end
$var wire 1 s inst3|Selector8~0_combout $end
$var wire 1 t inst3|Selector4~3_combout $end
$var wire 1 u inst3|Selector4~4_combout $end
$var wire 1 v inst3|Selector4~5_combout $end
$var wire 1 w inst3|Selector4~6_combout $end
$var wire 1 x inst3|Selector4~7_combout $end
$var wire 1 y inst3|Selector4~8_combout $end
$var wire 1 z inst3|Selector5~2_combout $end
$var wire 1 { inst3|Selector5~3_combout $end
$var wire 1 | inst3|Selector5~4_combout $end
$var wire 1 } inst3|Selector5~5_combout $end
$var wire 1 ~ inst3|Selector5~6_combout $end
$var wire 1 !! inst3|Selector6~2_combout $end
$var wire 1 "! inst3|Selector6~3_combout $end
$var wire 1 #! inst3|Selector6~4_combout $end
$var wire 1 $! inst3|Selector6~5_combout $end
$var wire 1 %! inst3|Selector6~6_combout $end
$var wire 1 &! inst3|Selector7~1_combout $end
$var wire 1 '! inst3|Selector7~2_combout $end
$var wire 1 (! inst3|Selector7~3_combout $end
$var wire 1 )! inst3|Selector7~4_combout $end
$var wire 1 *! inst3|Selector0~2_combout $end
$var wire 1 +! inst3|Selector0~3_combout $end
$var wire 1 ,! inst3|Selector0~4_combout $end
$var wire 1 -! inst3|Selector0~5_combout $end
$var wire 1 .! inst3|Selector0~6_combout $end
$var wire 1 /! inst3|Selector1~0_combout $end
$var wire 1 0! inst3|Selector1~1_combout $end
$var wire 1 1! inst3|Result~5_combout $end
$var wire 1 2! inst3|Selector1~2_combout $end
$var wire 1 3! inst3|Selector1~3_combout $end
$var wire 1 4! inst3|Selector1~4_combout $end
$var wire 1 5! inst3|Selector2~2_combout $end
$var wire 1 6! inst3|Selector2~3_combout $end
$var wire 1 7! inst3|Selector2~4_combout $end
$var wire 1 8! inst3|Selector2~5_combout $end
$var wire 1 9! inst3|Selector2~6_combout $end
$var wire 1 :! inst3|Selector4~11_combout $end
$var wire 1 ;! inst3|Selector5~8_combout $end
$var wire 1 <! inst3|Selector6~8_combout $end
$var wire 1 =! inst3|Selector0~8_combout $end
$var wire 1 >! inst3|Selector2~8_combout $end
$var wire 1 ?! Clock~combout $end
$var wire 1 @! decoder_enabler~combout $end
$var wire 1 A! Reset~combout $end
$var wire 1 B! inst3|LessThan0~1_cout $end
$var wire 1 C! inst3|LessThan0~3_cout $end
$var wire 1 D! inst3|LessThan0~5_cout $end
$var wire 1 E! inst3|LessThan0~7_cout $end
$var wire 1 F! inst3|LessThan0~9_cout $end
$var wire 1 G! inst3|LessThan0~11_cout $end
$var wire 1 H! inst3|LessThan0~13_cout $end
$var wire 1 I! inst3|LessThan0~14_combout $end
$var wire 1 J! inst1|yfsm.s0~0_combout $end
$var wire 1 K! data_in~combout $end
$var wire 1 L! inst1|yfsm.s0~regout $end
$var wire 1 M! inst3|Selector8~1_combout $end
$var wire 1 N! inst3|Neg~regout $end
$var wire 1 O! inst1|yfsm.s1~0_combout $end
$var wire 1 P! inst1|yfsm.s1~regout $end
$var wire 1 Q! inst1|yfsm.s2~regout $end
$var wire 1 R! inst1|yfsm.s3~regout $end
$var wire 1 S! inst1|yfsm.s4~regout $end
$var wire 1 T! inst1|yfsm.s5~regout $end
$var wire 1 U! inst1|yfsm.s6~regout $end
$var wire 1 V! inst1|yfsm.s7~regout $end
$var wire 1 W! inst3|Result[3]~2_combout $end
$var wire 1 X! inst1|WideOr12~combout $end
$var wire 1 Y! inst3|Result[3]~1_combout $end
$var wire 1 Z! inst3|Selector4~9_combout $end
$var wire 1 [! inst3|Selector4~10_combout $end
$var wire 1 \! inst3|Selector5~7_combout $end
$var wire 1 ]! inst3|Selector6~7_combout $end
$var wire 1 ^! inst3|Selector7~5_combout $end
$var wire 1 _! inst3|Add0~0_combout $end
$var wire 1 `! inst3|Selector7~6_combout $end
$var wire 1 a! inst3|Add2~0_combout $end
$var wire 1 b! inst3|Result~4_combout $end
$var wire 1 c! inst3|Selector7~0_combout $end
$var wire 1 d! inst3|Selector7~7_combout $end
$var wire 1 e! inst3|Selector7~8_combout $end
$var wire 1 f! inst3|Selector7~9_combout $end
$var wire 1 g! inst3|Selector7~10_combout $end
$var wire 1 h! inst3|Selector0~7_combout $end
$var wire 1 i! inst3|Selector1~5_combout $end
$var wire 1 j! inst3|Selector2~7_combout $end
$var wire 1 k! inst3|Selector4~2_combout $end
$var wire 1 l! inst3|Result[3]~0_combout $end
$var wire 1 m! inst3|Selector3~2_combout $end
$var wire 1 n! inst3|Result[3]~3_combout $end
$var wire 1 o! inst3|Add2~1 $end
$var wire 1 p! inst3|Add2~3 $end
$var wire 1 q! inst3|Add2~5 $end
$var wire 1 r! inst3|Add2~7 $end
$var wire 1 s! inst3|Add2~8_combout $end
$var wire 1 t! inst3|Add0~1 $end
$var wire 1 u! inst3|Add0~3 $end
$var wire 1 v! inst3|Add0~5 $end
$var wire 1 w! inst3|Add0~7 $end
$var wire 1 x! inst3|Add0~8_combout $end
$var wire 1 y! inst3|Selector3~8_combout $end
$var wire 1 z! inst3|Add1~1 $end
$var wire 1 {! inst3|Add1~3 $end
$var wire 1 |! inst3|Add1~5 $end
$var wire 1 }! inst3|Add1~7 $end
$var wire 1 ~! inst3|Add1~8_combout $end
$var wire 1 !" inst3|Selector3~3_combout $end
$var wire 1 "" inst3|Selector3~4_combout $end
$var wire 1 #" inst3|Selector3~5_combout $end
$var wire 1 $" inst3|Selector3~6_combout $end
$var wire 1 %" inst3|Selector3~7_combout $end
$var wire 1 &" inst6|Mux0~0_combout $end
$var wire 1 '" inst6|Mux1~0_combout $end
$var wire 1 (" inst6|Mux2~0_combout $end
$var wire 1 )" inst6|Mux3~0_combout $end
$var wire 1 *" inst6|Mux4~0_combout $end
$var wire 1 +" inst6|Mux5~0_combout $end
$var wire 1 ," inst6|Mux6~0_combout $end
$var wire 1 -" inst4|Mux0~0_combout $end
$var wire 1 ." inst4|Mux1~0_combout $end
$var wire 1 /" inst4|Mux2~0_combout $end
$var wire 1 0" inst4|Mux3~0_combout $end
$var wire 1 1" inst4|Mux4~0_combout $end
$var wire 1 2" inst4|Mux5~0_combout $end
$var wire 1 3" inst4|Mux6~0_combout $end
$var wire 1 4" inst1|yfsm.s8~regout $end
$var wire 1 5" inst1|WideOr10~0_combout $end
$var wire 1 6" inst1|WideOr9~0_combout $end
$var wire 1 7" inst12|Mux0~0_combout $end
$var wire 1 8" inst12|Mux1~0_combout $end
$var wire 1 9" inst12|Mux3~0_combout $end
$var wire 1 :" inst12|Mux4~0_combout $end
$var wire 1 ;" inst12|Mux5~0_combout $end
$var wire 1 <" inst12|Mux6~2_combout $end
$var wire 1 =" inst1|WideOr9~1_combout $end
$var wire 1 >" inst1|WideOr10~1_combout $end
$var wire 1 ?" inst13|Q [7] $end
$var wire 1 @" inst13|Q [6] $end
$var wire 1 A" inst13|Q [5] $end
$var wire 1 B" inst13|Q [4] $end
$var wire 1 C" inst13|Q [3] $end
$var wire 1 D" inst13|Q [2] $end
$var wire 1 E" inst13|Q [1] $end
$var wire 1 F" inst13|Q [0] $end
$var wire 1 G" B~combout [7] $end
$var wire 1 H" B~combout [6] $end
$var wire 1 I" B~combout [5] $end
$var wire 1 J" B~combout [4] $end
$var wire 1 K" B~combout [3] $end
$var wire 1 L" B~combout [2] $end
$var wire 1 M" B~combout [1] $end
$var wire 1 N" B~combout [0] $end
$var wire 1 O" inst3|Result [7] $end
$var wire 1 P" inst3|Result [6] $end
$var wire 1 Q" inst3|Result [5] $end
$var wire 1 R" inst3|Result [4] $end
$var wire 1 S" inst3|Result [3] $end
$var wire 1 T" inst3|Result [2] $end
$var wire 1 U" inst3|Result [1] $end
$var wire 1 V" inst3|Result [0] $end
$var wire 1 W" inst5|Q [7] $end
$var wire 1 X" inst5|Q [6] $end
$var wire 1 Y" inst5|Q [5] $end
$var wire 1 Z" inst5|Q [4] $end
$var wire 1 [" inst5|Q [3] $end
$var wire 1 \" inst5|Q [2] $end
$var wire 1 ]" inst5|Q [1] $end
$var wire 1 ^" inst5|Q [0] $end
$var wire 1 _" A~combout [7] $end
$var wire 1 `" A~combout [6] $end
$var wire 1 a" A~combout [5] $end
$var wire 1 b" A~combout [4] $end
$var wire 1 c" A~combout [3] $end
$var wire 1 d" A~combout [2] $end
$var wire 1 e" A~combout [1] $end
$var wire 1 f" A~combout [0] $end
$var wire 1 g" inst1|student_id [3] $end
$var wire 1 h" inst1|student_id [2] $end
$var wire 1 i" inst1|student_id [1] $end
$var wire 1 j" inst1|student_id [0] $end
$upscope $end
$upscope $end
$enddefinitions $end
#0
$dumpvars
b10000110 !
b10010100 "
0#
1$
1%
1&
0'
0+
0*
0)
0(
0/
0.
0-
0,
16
05
04
03
02
01
00
1=
1<
1;
1:
19
18
17
1D
0C
0B
0A
0@
0?
0>
0K
0J
1I
0H
0G
1F
0E
1O
0N
1M
0L
xP
0Q
1R
xS
1T
1U
1V
0W
0X
0Y
0Z
0[
0\
0]
0^
0_
0`
1a
0b
0c
0d
1e
0f
0g
0h
1i
0j
0k
0l
1m
0n
0o
0p
1q
0r
0s
0t
0u
0v
0w
1x
0y
0z
0{
0|
0}
0~
0!!
0"!
0#!
0$!
0%!
0&!
0'!
0(!
0)!
0*!
0+!
0,!
0-!
0.!
0/!
00!
01!
02!
03!
04!
05!
06!
07!
08!
09!
0:!
0;!
0<!
0=!
0>!
0?!
1@!
1A!
0B!
1C!
0D!
1E!
0F!
1G!
0H!
0I!
1J!
1K!
0L!
0M!
0N!
1O!
0P!
0Q!
0R!
0S!
0T!
0U!
0V!
1W!
0X!
0Y!
0Z!
0[!
0\!
0]!
0^!
0_!
0`!
0a!
0b!
0c!
0d!
0e!
1f!
0g!
0h!
0i!
0j!
0k!
0l!
0m!
0n!
1o!
0p!
1q!
0r!
0s!
0t!
1u!
0v!
1w!
0x!
0y!
1z!
0{!
1|!
0}!
0~!
0!"
0""
0#"
0$"
0%"
0&"
0'"
0("
0)"
0*"
0+"
0,"
0-"
0."
0/"
00"
01"
02"
03"
04"
15"
06"
17"
18"
19"
0:"
0;"
1<"
0="
0>"
0F"
0E"
0D"
0C"
0B"
0A"
0@"
0?"
0N"
0M"
1L"
0K"
1J"
0I"
0H"
1G"
0V"
0U"
0T"
0S"
0R"
0Q"
0P"
0O"
0^"
0]"
0\"
0["
0Z"
0Y"
0X"
0W"
0f"
1e"
1d"
0c"
0b"
0a"
0`"
1_"
zj"
zi"
zh"
0g"
$end
#10000
1#
1?!
0P
1W"
1]"
1\"
1P!
1L!
1D"
1B"
1?"
1{!
1^
1Z
1W
1v!
1>"
05"
1X!
1="
16"
1c!
0O!
1F!
1~!
1x!
0a
1s!
0|!
1_
1<!
1\
1:"
08"
1k!
1e!
0x
0<"
17!
1v
0G!
1y!
1c
1b
0O
0M
1}!
1`
1$!
1:!
1$"
15!
1/!
1t
1g!
1H!
0e
1d
0F
0I
1K
0~!
1w
1%"
19!
14!
1y
1I!
1f
1j!
1i!
1[!
#20000
0#
0?!
1P
#30000
1#
1?!
0P
1R"
1Q"
1P"
1V"
1S"
1Q!
0P!
1+"
1*"
1)"
13"
11"
10"
1n!
1l!
0c!
1>!
1=!
0:!
0>"
15"
1/
1.
1-
1+
1(
18!
12!
0$!
1!!
1d!
07!
13!
1#!
1|
1;"
0:"
09"
07"
15
14
13
1B
1A
0D
1O
03!
1%!
08!
1$!
1}
1J
1I
1H
1E
1]!
#40000
0#
0?!
1P
#50000
1#
1?!
0P
1U"
1R!
0Q!
01"
00"
1."
1-"
0f!
1&!
0l!
1c!
0X!
0>!
0=!
1:!
1'!
1*
0g!
1(!
0!!
1x
0d!
17!
13!
0#!
0|
0k!
0B
0A
1?
1>
1g!
1~
0e!
18!
0$!
0}
0$"
05!
0/!
0t
1\!
0%!
0~
0%"
0]!
0\!
#60000
0#
0?!
1P
#70000
1#
1?!
0P
0R"
0U"
1S!
0R!
1,"
0+"
0*"
0)"
1'"
11"
10"
0."
0-"
0="
06"
1l!
1)!
0'!
0n!
0&!
0/
0*
1<"
0;"
19"
18"
17"
1Z!
0x
0(!
1""
08!
02!
1$!
05
04
03
11
1B
1A
0?
0>
06
1M
1m!
1h!
1\!
0""
09!
04!
0y
0g!
1%"
03!
0J
1F
0K
0H
0E
0%"
0j!
0i!
0[!
#80000
0#
0?!
1P
#90000
1#
1?!
0P
0Q"
0P"
1O"
0V"
1T"
0S"
1T!
0S!
0'"
1-"
1>"
0<"
1g"
05"
1Y!
1="
16"
0l!
1f!
0)!
1'!
0.
0-
1,
0+
1)
0(
1:"
08"
1#"
0Z!
1"!
1<"
01
1>
1L
0O
1K
0M
1$"
0m!
0h!
0\!
1%!
0F
0I
0K
1%"
1]!
#100000
0#
0?!
1P
#110000
1#
1?!
0P
1R"
0O"
1U"
0T"
1U!
0T!
0,"
1+"
1*"
1)"
1&"
12"
01"
00"
1/"
0-"
0="
18"
0f!
0Y!
0W!
0g"
15"
1/
0,
1*
0)
1N
1+!
1{
15
14
13
10
1C
0B
0A
1@
0>
1F
0L
16
1M
1.!
1~
1h!
1\!
#120000
0#
0?!
1P
#130000
1#
1?!
0P
1O"
1T"
1V!
0U!
1,"
0+"
0&"
02"
0/"
1."
1g"
1`!
1Y!
0>"
1="
1;"
0:"
09"
08"
07"
1,
1)
0N
0;"
17"
1g!
0#"
16!
10!
0"!
1u
05
00
0C
0@
1?
1L
1J
0F
06
1O
0M
1I
1H
1E
0$"
19!
14!
0%!
1y
0J
0E
0%"
1j!
1i!
0]!
1[!
#140000
0#
0?!
1P
#150000
1#
1?!
0P
14"
0R"
1Q"
1P"
1V"
0U"
1S"
0V!
1>"
0="
06"
05"
0J!
0*"
0)"
1("
1'"
12"
0."
1-"
0<"
0g"
1f!
0`!
0Y!
1W!
0/
1.
1-
1+
0*
1(
1<"
07"
0g!
06!
00!
0+!
0{
1x
0u
04
03
12
11
1C
0?
1>
0L
0O
1M
1K
09!
04!
0.!
0~
1""
1%!
0K
1E
0j!
0i!
0h!
0\!
1%"
1]!
#160000
0#
0?!
1P
#170000
1#
1?!
0P
04"
1R"
0Q"
0P"
0O"
0V"
1U"
0T"
0L!
0>"
15"
1J!
0,"
1+"
1*"
1)"
0("
0'"
1&"
02"
10"
0-"
1n!
0c!
1O!
1M!
1>!
1=!
0:!
0'!
1/
0.
0-
0,
0+
1*
0)
19"
18"
17"
0""
18!
12!
0$!
07!
13!
1#!
1|
15
14
13
02
01
10
0C
1A
0>
1O
16
0%"
19!
03!
0%!
08!
14!
1$!
1}
1F
0H
0E
1j!
04!
0]!
09!
1i!
1%!
1~
0i!
0j!
1]!
1\!
#180000
0#
0?!
1P
#190000
1#
1?!
0P
0R"
1T"
1P!
1N!
1L!
0+"
0*"
0)"
0&"
00"
1/"
1."
1>"
05"
1X!
1="
16"
0n!
1c!
0O!
0M!
0>!
0=!
1:!
0/
1)
1'
0=
1:"
08"
1k!
1e!
0x
0<"
1""
02!
0}
17!
13!
0#!
0|
05
04
03
00
0A
1@
1?
0O
0M
1$"
15!
1/!
1t
1g!
0""
0%!
0~
0y
1%"
03!
0F
0I
1K
19!
14!
1y
0]!
0\!
0[!
1j!
1i!
1[!
#200000
0#
0?!
1P
#210000
1#
1?!
0P
1R"
1Q"
1P"
1V"
0U"
0T"
1Q!
0P!
0N!
1+"
1*"
1)"
11"
10"
0/"
0."
1n!
1l!
0c!
1>!
1=!
0:!
0>"
15"
1/
1.
1-
1+
0*
0)
0'
1=
18!
12!
0$!
1!!
1d!
07!
13!
1#!
1|
1;"
0:"
09"
07"
15
14
13
1B
1A
0@
0?
1O
03!
1%!
08!
1$!
1}
1J
1I
1H
1E
1]!
#220000
0#
0?!
1P
#230000
1#
1?!
0P
1U"
1R!
0Q!
01"
00"
1."
1-"
0f!
1&!
0l!
1c!
0X!
0>!
0=!
1:!
1'!
1*
0g!
1(!
0!!
1x
0d!
17!
13!
0#!
0|
0k!
0B
0A
1?
1>
1g!
1~
0e!
18!
0$!
0}
0$"
05!
0/!
0t
1\!
0%!
0~
0%"
0]!
0\!
#240000
0#
0?!
1P
#250000
1#
1?!
0P
0R"
0U"
1S!
0R!
1,"
0+"
0*"
0)"
1'"
11"
10"
0."
0-"
0="
06"
1l!
1)!
0'!
0n!
0&!
0/
0*
1<"
0;"
19"
18"
17"
1Z!
0x
0(!
1""
08!
02!
1$!
05
04
03
11
1B
1A
0?
0>
06
1M
1m!
1h!
1\!
0""
09!
04!
0y
0g!
1%"
03!
0J
1F
0K
0H
0E
0%"
0j!
0i!
0[!
#260000
0#
0?!
1P
#270000
1#
1?!
0P
0Q"
0P"
1O"
0V"
1T"
0S"
1T!
0S!
0'"
1-"
1>"
0<"
1g"
05"
1Y!
1="
16"
0l!
1f!
0)!
1'!
0.
0-
1,
0+
1)
0(
1:"
08"
1#"
0Z!
1"!
1<"
01
1>
1L
0O
1K
0M
1$"
0m!
0h!
0\!
1%!
0F
0I
0K
1%"
1]!
#280000
0#
0?!
1P
#290000
1#
1?!
0P
1R"
0O"
1U"
0T"
1U!
0T!
0,"
1+"
1*"
1)"
1&"
12"
01"
00"
1/"
0-"
0="
18"
0f!
0Y!
0W!
0g"
15"
1/
0,
1*
0)
1N
1+!
1{
15
14
13
10
1C
0B
0A
1@
0>
1F
0L
16
1M
1.!
1~
1h!
1\!
#300000
0#
0?!
1P
#310000
1#
1?!
0P
1O"
1T"
1V!
0U!
1,"
0+"
0&"
02"
0/"
1."
1g"
1`!
1Y!
0>"
1="
1;"
0:"
09"
08"
07"
1,
1)
0N
0;"
17"
1g!
0#"
16!
10!
0"!
1u
05
00
0C
0@
1?
1L
1J
0F
06
1O
0M
1I
1H
1E
0$"
19!
14!
0%!
1y
0J
0E
0%"
1j!
1i!
0]!
1[!
