Lab4/johns/simulation/qsim/johns.msim.vcd
$comment
	File created using the following command:
		vcd file johns.msim.vcd -direction
$end
$date
	Tue Oct 17 14:51:30 2023
$end
$version
	ModelSim Version 10.1d
$end
$timescale
	1ps
$end
$scope module johns_vlg_vec_tst $end
$var reg 1 ! Clkn $end
$var reg 1 " Clrn $end
$var reg 1 # E $end
$var wire 1 $ Q [0] $end
$var wire 1 % Q [1] $end
$var wire 1 & Q [2] $end
$var wire 1 ' STUDENT_ID [3] $end
$var wire 1 ( STUDENT_ID [2] $end
$var wire 1 ) STUDENT_ID [1] $end
$var wire 1 * STUDENT_ID [0] $end
$var wire 1 + sampler $end
$scope module i1 $end
$var wire 1 , gnd $end
$var wire 1 - vcc $end
$var wire 1 . unknown $end
$var tri1 1 / devclrn $end
$var tri1 1 0 devpor $end
$var tri1 1 1 devoe $end
$var wire 1 2 Clkn~combout $end
$var wire 1 3 Clkn~clkctrl_outclk $end
$var wire 1 4 Qreg[1]~feeder_combout $end
$var wire 1 5 Clrn~combout $end
$var wire 1 6 Clrn~clkctrl_outclk $end
$var wire 1 7 E~combout $end
$var wire 1 8 Qreg[2]~feeder_combout $end
$var wire 1 9 Qreg[0]~0_combout $end
$var wire 1 : Mux2~0_combout $end
$var wire 1 ; Mux1~0_combout $end
$var wire 1 < Mux0~0_combout $end
$var wire 1 = Qreg [0] $end
$var wire 1 > Qreg [1] $end
$var wire 1 ? Qreg [2] $end
$upscope $end
$upscope $end
$enddefinitions $end
#0
$dumpvars
0!
0"
1#
0&
0%
0$
1*
0)
0(
0'
x+
0,
1-
x.
1/
10
11
02
03
04
05
06
17
08
19
0:
0;
0<
0?
0>
0=
$end
#20000
1!
12
13
0+
#40000
0!
02
03
1+
#50000
1"
15
16
0+
#60000
1!
12
13
1+
#80000
0!
02
03
0+
1=
1<
1;
14
1$
1(
1)
#100000
1!
12
13
1+
#120000
0!
02
03
0+
1>
0<
0;
1:
18
1%
0(
0)
0*
#140000
1!
12
13
1+
#160000
0!
02
03
0+
1?
1<
0:
09
1&
1(
1*
#180000
1!
12
13
1+
#200000
0!
02
03
0+
0=
0<
1:
04
0$
0(
0*
#220000
1!
12
13
1+
#240000
0!
02
03
0+
0>
1<
1;
08
0%
1(
1)
#260000
1!
12
13
1+
#280000
0!
02
03
0+
0?
0<
0;
0:
19
0&
0(
0)
1*
#300000
1!
12
13
1+
#320000
0!
02
03
0+
1=
1<
1;
14
1$
1(
1)
#340000
1!
12
13
1+
#360000
0!
02
03
0+
1>
0<
0;
1:
18
1%
0(
0)
0*
#380000
1!
12
13
1+
#400000
0!
02
03
0+
1?
1<
0:
09
1&
1(
1*
#420000
1!
12
13
1+
#440000
0!
02
03
0+
0=
0<
1:
04
0$
0(
0*
#460000
1!
12
13
1+
#480000
0!
02
03
0+
0>
1<
1;
08
0%
1(
1)
