Lab4/mux/simulation/qsim/mux.msim.vcd
$comment
	File created using the following command:
		vcd file mux.msim.vcd -direction
$end
$date
	Tue Oct 17 15:10:27 2023
$end
$version
	ModelSim Version 10.1d
$end
$timescale
	1ps
$end
$scope module mux2to1_vlg_vec_tst $end
$var reg 1 ! s $end
$var reg 1 " w0 $end
$var reg 1 # w1 $end
$var wire 1 $ f $end
$var wire 1 % sampler $end
$scope module i1 $end
$var wire 1 & gnd $end
$var wire 1 ' vcc $end
$var wire 1 ( unknown $end
$var tri1 1 ) devclrn $end
$var tri1 1 * devpor $end
$var tri1 1 + devoe $end
$var wire 1 , s~combout $end
$var wire 1 - w1~combout $end
$var wire 1 . w0~combout $end
$var wire 1 / f~0_combout $end
$upscope $end
$upscope $end
$enddefinitions $end
#0
$dumpvars
0!
0"
0#
0$
x%
0&
1'
x(
1)
1*
1+
0,
0-
0.
0/
$end
#10000
1#
1-
0%
#20000
1"
0#
1.
0-
1%
1/
1$
#30000
1#
1-
0%
#40000
0"
0#
0.
0-
1%
0/
0$
#50000
1#
1-
0%
#60000
1"
0#
1.
0-
1%
1/
1$
#70000
1#
1-
0%
#80000
1!
0"
0#
1,
0.
0-
1%
0/
0$
#90000
1#
1-
0%
1/
1$
#100000
1"
0#
1.
0-
1%
0/
0$
#110000
1#
1-
0%
1/
1$
#120000
0"
0#
0.
0-
1%
0/
0$
#130000
1#
1-
0%
1/
1$
#140000
1"
0#
1.
0-
1%
0/
0$
#150000
1#
1-
0%
1/
1$
